{
  "info": {
    "_postman_id": "cd0bc75c-2d47-47f6-8e40-b961af6e78db",
    "name": "bountywins",
    "schema": "https://schema.getpostman.com/json/collection/v2.1.0/collection.json"
  },
  "item": [
    {
      "name": "registration_user",
      "protocolProfileBehavior": {
        "disableBodyPruning": true
      },
      "request": {
        "method": "GET",
        "header": [],
        "body": {
          "mode": "raw",
          "raw": "{\n    \"email\": \"chayka1998A@yandex.ru\",\n    \"username\": \"ronnycray\",\n    \"password\": \"1199\"\n}",
          "options": {
            "raw": {
              "language": "json"
            }
          }
        },
        "url": {
          "raw": "http://127.0.0.1:8000/api/registration_user/",
          "protocol": "http",
          "host": [
            "127",
            "0",
            "0",
            "1"
          ],
          "port": "8000",
          "path": [
            "api",
            "registration_user",
            ""
          ]
        }
      },
      "response": []
    },
    {
      "name": "auth",
      "protocolProfileBehavior": {
        "disableBodyPruning": true
      },
      "request": {
        "method": "GET",
        "header": [
          {
            "key": "Authorization",
            "value": "eyJ0eXAiOiJKV1QiLCJhbGciOiJIUzI1NiJ9.eyJlbWFpbCI6ImNoYXlrYTE5OThBQHlhbmRleC5ydSIsInBhc3N3b3JkIjoicGJrZGYyX3NoYTI1NiQyMTYwMDAkRGhUU1ViUEQwMWgzJGVRNkc0VHN6UEVZVFBOWDBlQkplM09ZZGlWS01qalZPa05zZkNGV0ExWDA9In0.mi3MdlcE6YFGiWcznO-1l4eiOlwRhrwfuEHa33CWX7w",
            "type": "text"
          },
          {
            "key": "",
            "value": "",
            "type": "text",
            "disabled": true
          }
        ],
        "body": {
          "mode": "raw",
          "raw": "{\n    \"username\": \"ronnycray\",\n    \"password\": \"11991199\"\n}",
          "options": {
            "raw": {
              "language": "json"
            }
          }
        },
        "url": {
          "raw": "http://127.0.0.1:8000/api/authorization_user/",
          "protocol": "http",
          "host": [
            "127",
            "0",
            "0",
            "1"
          ],
          "port": "8000",
          "path": [
            "api",
            "authorization_user",
            ""
          ]
        }
      },
      "response": []
    },
    {
      "name": "get_last_events",
      "protocolProfileBehavior": {
        "disableBodyPruning": true
      },
      "request": {
        "method": "GET",
        "header": [
          {
            "key": "Authorization",
            "value": "eyJ0eXAiOiJKV1QiLCJhbGciOiJIUzI1NiJ9.eyJlbWFpbCI6ImNoYXlrYTE5OThBQHlhbmRleC5ydSIsInBhc3N3b3JkIjoicGJrZGYyX3NoYTI1NiQyMTYwMDAkRGhUU1ViUEQwMWgzJGVRNkc0VHN6UEVZVFBOWDBlQkplM09ZZGlWS01qalZPa05zZkNGV0ExWDA9In0.mi3MdlcE6YFGiWcznO-1l4eiOlwRhrwfuEHa33CWX7w",
            "type": "text"
          },
          {
            "key": "",
            "value": "",
            "type": "text",
            "disabled": true
          }
        ],
        "body": {
          "mode": "raw",
          "raw": "",
          "options": {
            "raw": {
              "language": "json"
            }
          }
        },
        "url": {
          "raw": "http://127.0.0.1:8000/api/get_last_events/",
          "protocol": "http",
          "host": [
            "127",
            "0",
            "0",
            "1"
          ],
          "port": "8000",
          "path": [
            "api",
            "get_last_events",
            ""
          ]
        }
      },
      "response": []
    },
    {
      "name": "get_statistics",
      "protocolProfileBehavior": {
        "disableBodyPruning": true
      },
      "request": {
        "method": "GET",
        "header": [
          {
            "key": "Authorization",
            "value": "eyJ0eXAiOiJKV1QiLCJhbGciOiJIUzI1NiJ9.eyJlbWFpbCI6ImNoYXlrYTE5OThBQHlhbmRleC5ydSIsInBhc3N3b3JkIjoicGJrZGYyX3NoYTI1NiQyMTYwMDAkRGhUU1ViUEQwMWgzJGVRNkc0VHN6UEVZVFBOWDBlQkplM09ZZGlWS01qalZPa05zZkNGV0ExWDA9In0.mi3MdlcE6YFGiWcznO-1l4eiOlwRhrwfuEHa33CWX7w",
            "type": "text"
          },
          {
            "key": "",
            "value": "",
            "type": "text",
            "disabled": true
          }
        ],
        "body": {
          "mode": "raw",
          "raw": "",
          "options": {
            "raw": {
              "language": "json"
            }
          }
        },
        "url": {
          "raw": "http://127.0.0.1:8000/api/get_statistics/",
          "protocol": "http",
          "host": [
            "127",
            "0",
            "0",
            "1"
          ],
          "port": "8000",
          "path": [
            "api",
            "get_statistics",
            ""
          ]
        }
      },
      "response": []
    },
    {
      "name": "get_winners",
      "protocolProfileBehavior": {
        "disableBodyPruning": true
      },
      "request": {
        "method": "GET",
        "header": [
          {
            "key": "Authorization",
            "value": "eyJ0eXAiOiJKV1QiLCJhbGciOiJIUzI1NiJ9.eyJlbWFpbCI6ImNoYXlrYTE5OThBQHlhbmRleC5ydSIsInBhc3N3b3JkIjoicGJrZGYyX3NoYTI1NiQyMTYwMDAkRGhUU1ViUEQwMWgzJGVRNkc0VHN6UEVZVFBOWDBlQkplM09ZZGlWS01qalZPa05zZkNGV0ExWDA9In0.mi3MdlcE6YFGiWcznO-1l4eiOlwRhrwfuEHa33CWX7w",
            "type": "text"
          },
          {
            "key": "",
            "value": "",
            "type": "text",
            "disabled": true
          }
        ],
        "body": {
          "mode": "raw",
          "raw": "",
          "options": {
            "raw": {
              "language": "json"
            }
          }
        },
        "url": {
          "raw": "http://127.0.0.1:8000/api/get_winners/",
          "protocol": "http",
          "host": [
            "127",
            "0",
            "0",
            "1"
          ],
          "port": "8000",
          "path": [
            "api",
            "get_winners",
            ""
          ]
        }
      },
      "response": []
    },
    {
      "name": "get_top_winners",
      "protocolProfileBehavior": {
        "disableBodyPruning": true
      },
      "request": {
        "method": "GET",
        "header": [
          {
            "key": "Authorization",
            "value": "eyJ0eXAiOiJKV1QiLCJhbGciOiJIUzI1NiJ9.eyJlbWFpbCI6ImNoYXlrYTE5OThBQHlhbmRleC5ydSIsInBhc3N3b3JkIjoicGJrZGYyX3NoYTI1NiQyMTYwMDAkRGhUU1ViUEQwMWgzJGVRNkc0VHN6UEVZVFBOWDBlQkplM09ZZGlWS01qalZPa05zZkNGV0ExWDA9In0.mi3MdlcE6YFGiWcznO-1l4eiOlwRhrwfuEHa33CWX7w",
            "type": "text"
          },
          {
            "key": "",
            "value": "",
            "type": "text",
            "disabled": true
          }
        ],
        "body": {
          "mode": "raw",
          "raw": "",
          "options": {
            "raw": {
              "language": "json"
            }
          }
        },
        "url": {
          "raw": "http://127.0.0.1:8000/api/get_top_winners/",
          "protocol": "http",
          "host": [
            "127",
            "0",
            "0",
            "1"
          ],
          "port": "8000",
          "path": [
            "api",
            "get_top_winners",
            ""
          ]
        }
      },
      "response": []
    },
    {
      "name": "get_all_events",
      "protocolProfileBehavior": {
        "disableBodyPruning": true
      },
      "request": {
        "method": "GET",
        "header": [
          {
            "key": "Authorization",
            "value": "eyJ0eXAiOiJKV1QiLCJhbGciOiJIUzI1NiJ9.eyJlbWFpbCI6ImNoYXlrYTE5OThBQHlhbmRleC5ydSIsInBhc3N3b3JkIjoicGJrZGYyX3NoYTI1NiQyMTYwMDAkRGhUU1ViUEQwMWgzJGVRNkc0VHN6UEVZVFBOWDBlQkplM09ZZGlWS01qalZPa05zZkNGV0ExWDA9In0.mi3MdlcE6YFGiWcznO-1l4eiOlwRhrwfuEHa33CWX7w",
            "type": "text"
          },
          {
            "key": "",
            "value": "",
            "type": "text",
            "disabled": true
          }
        ],
        "body": {
          "mode": "raw",
          "raw": "",
          "options": {
            "raw": {
              "language": "json"
            }
          }
        },
        "url": {
          "raw": "http://127.0.0.1:8000/api/get_all_events/",
          "protocol": "http",
          "host": [
            "127",
            "0",
            "0",
            "1"
          ],
          "port": "8000",
          "path": [
            "api",
            "get_all_events",
            ""
          ]
        }
      },
      "response": []
    },
    {
      "name": "get_event",
      "protocolProfileBehavior": {
        "disableBodyPruning": true
      },
      "request": {
        "method": "GET",
        "header": [
          {
            "key": "Authorization",
            "value": "eyJ0eXAiOiJKV1QiLCJhbGciOiJIUzI1NiJ9.eyJlbWFpbCI6ImNoYXlrYTE5OThBQHlhbmRleC5ydSIsInBhc3N3b3JkIjoicGJrZGYyX3NoYTI1NiQyMTYwMDAkRGhUU1ViUEQwMWgzJGVRNkc0VHN6UEVZVFBOWDBlQkplM09ZZGlWS01qalZPa05zZkNGV0ExWDA9In0.mi3MdlcE6YFGiWcznO-1l4eiOlwRhrwfuEHa33CWX7w",
            "type": "text"
          },
          {
            "key": "",
            "value": "",
            "type": "text",
            "disabled": true
          }
        ],
        "body": {
          "mode": "raw",
          "raw": "{\n    \"id_event\": 1\n}",
          "options": {
            "raw": {
              "language": "json"
            }
          }
        },
        "url": {
          "raw": "http://127.0.0.1:8000/api/get_event/",
          "protocol": "http",
          "host": [
            "127",
            "0",
            "0",
            "1"
          ],
          "port": "8000",
          "path": [
            "api",
            "get_event",
            ""
          ]
        }
      },
      "response": []
    },
    {
      "name": "update_profile",
      "protocolProfileBehavior": {
        "disableBodyPruning": true
      },
      "request": {
        "method": "GET",
        "header": [
          {
            "key": "Authorization",
            "value": "eyJ0eXAiOiJKV1QiLCJhbGciOiJIUzI1NiJ9.eyJlbWFpbCI6ImNoYXlrYTE5OThBQHlhbmRleC5ydSIsInBhc3N3b3JkIjoiMTE5OSJ9.4oK3SR_XqtEamauYs02LBijjOPz3CEBHELg0a8jl7DQ",
            "type": "text"
          },
          {
            "key": "",
            "value": "",
            "type": "text",
            "disabled": true
          }
        ],
        "body": {
          "mode": "raw",
          "raw": "{\n    \"first_name\": \"Александр\",\n    \"second_name\": \"Чайка\",\n    \"company\": \"LSD\",\n    \"city\": 1,\n    \"country\": 1,\n    \"address\": \"Лизочка\",\n    \"postcode\": \"444\",\n    \"phone\": \"89888932835\",\n    \"day_birth\": \"19/04/1998\"\n}",
          "options": {
            "raw": {
              "language": "json"
            }
          }
        },
        "url": {
          "raw": "http://127.0.0.1:8000/api/update_profile/",
          "protocol": "http",
          "host": [
            "127",
            "0",
            "0",
            "1"
          ],
          "port": "8000",
          "path": [
            "api",
            "update_profile",
            ""
          ]
        }
      },
      "response": [
        {
          "status": true,
          "error": ""
        }
      ]
    },
    {
      "name": "get_info_user",
      "protocolProfileBehavior": {
        "disableBodyPruning": true
      },
      "request": {
        "method": "GET",
        "header": [
          {
            "key": "Authorization",
            "value": "eyJ0eXAiOiJKV1QiLCJhbGciOiJIUzI1NiJ9.eyJlbWFpbCI6ImNoYXlrYUB5YW5kZXgucnUiLCJwYXNzd29yZCI6IjExOTkxMTk5In0.xGUVSEHaE7Ls6bg8C66mXUU_xGwITHDMYFuS0RHWFhI",
            "type": "text"
          },
          {
            "key": "",
            "value": "",
            "type": "text",
            "disabled": true
          }
        ],
        "body": {
          "mode": "raw",
          "raw": "",
          "options": {
            "raw": {
              "language": "json"
            }
          }
        },
        "url": {
          "raw": "http://127.0.0.1:8000/api/get_info_user/",
          "protocol": "http",
          "host": [
            "127",
            "0",
            "0",
            "1"
          ],
          "port": "8000",
          "path": [
            "api",
            "get_info_user",
            ""
          ]
        }
      },
      "response": [
        {
          "info": {
            "username": "ronnycray",
            "email": "chayka@yandex.ru",
            "cash_back": 0,
            "first_name": "Александр",
            "second_name": "Чайка",
            "company": "LSD",
            "city": "Ростов",
            "country": "Россия",
            "address": "Лизочка",
            "postcode": "444",
            "phone": "89888932835",
            "day_birth": "1998-04-19",
            "photo": "",
            "active": true
          },
          "error": ""
        }
      ]
    },
    {
      "name": "change_password",
      "protocolProfileBehavior": {
        "disableBodyPruning": true
      },
      "request": {
        "method": "GET",
        "header": [
          {
            "key": "Authorization",
            "value": "eyJ0eXAiOiJKV1QiLCJhbGciOiJIUzI1NiJ9.eyJlbWFpbCI6ImNoYXlrYUB5YW5kZXgucnUiLCJwYXNzd29yZCI6IjExOTkxMTk5In0.xGUVSEHaE7Ls6bg8C66mXUU_xGwITHDMYFuS0RHWFhI",
            "type": "text"
          },
          {
            "key": "",
            "value": "",
            "type": "text",
            "disabled": true
          }
        ],
        "body": {
          "mode": "raw",
          "raw": "{\n    \"password\": \"11991199\",\n    \"new_password\": \"1199\"\n}",
          "options": {
            "raw": {
              "language": "json"
            }
          }
        },
        "url": {
          "raw": "http://127.0.0.1:8000/api/change_password/",
          "protocol": "http",
          "host": [
            "127",
            "0",
            "0",
            "1"
          ],
          "port": "8000",
          "path": [
            "api",
            "change_password",
            ""
          ]
        }
      },
      "response": {
        "status": true,
        "error": ""
      }
    },
    {
      "name": "change_email",
      "protocolProfileBehavior": {
        "disableBodyPruning": true
      },
      "request": {
        "method": "GET",
        "header": [
          {
            "key": "Authorization",
            "value": "eyJ0eXAiOiJKV1QiLCJhbGciOiJIUzI1NiJ9.eyJlbWFpbCI6ImNoYXlrYUB5YW5kZXgucnUiLCJwYXNzd29yZCI6IjExOTkxMTk5In0.xGUVSEHaE7Ls6bg8C66mXUU_xGwITHDMYFuS0RHWFhI",
            "type": "text"
          },
          {
            "key": "",
            "value": "",
            "type": "text",
            "disabled": true
          }
        ],
        "body": {
          "mode": "raw",
          "raw": "{\n    \"email\": \"chayka@yandex.ru\",\n    \"password\": \"11991199\"\n}",
          "options": {
            "raw": {
              "language": "json"
            }
          }
        },
        "url": {
          "raw": "http://127.0.0.1:8000/api/change_email/",
          "protocol": "http",
          "host": [
            "127",
            "0",
            "0",
            "1"
          ],
          "port": "8000",
          "path": [
            "api",
            "change_email",
            ""
          ]
        }
      },
      "response": {
        "status": true,
        "error": ""
      }
    },
    {
      "name": "get_entry_list",
      "protocolProfileBehavior": {
        "disableBodyPruning": true
      },
      "request": {
        "method": "GET",
        "header": [
          {
            "key": "Authorization",
            "value": "eyJ0eXAiOiJKV1QiLCJhbGciOiJIUzI1NiJ9.eyJlbWFpbCI6ImNoYXlrYTE5OThBQHlhbmRleC5ydSIsInBhc3N3b3JkIjoiMTE5OTExOTkifQ._EnaVtiDMGoriGzWSRJhbjd4_jBfTm04RyTAWVJpuVs",
            "type": "text"
          },
          {
            "key": "",
            "value": "",
            "type": "text",
            "disabled": true
          }
        ],
        "body": {
          "mode": "raw",
          "raw": "",
          "options": {
            "raw": {
              "language": "json"
            }
          }
        },
        "url": {
          "raw": "http://127.0.0.1:8000/api/get_entry_list/",
          "protocol": "http",
          "host": [
            "127",
            "0",
            "0",
            "1"
          ],
          "port": "8000",
          "path": [
            "api",
            "get_entry_list",
            ""
          ]
        }
      },
      "response": [
        {
          "events": [
            {
              "id": 12,
              "name": "2020 Land Rover Defender 110",
              "create_at": {
                "date": "February 28, 2021",
                "time": "05:47 PM"
              },
              "finished_at": {
                "data": "March 28, 2021",
                "time": "12:00 PM"
              }
            }
          ],
          "error": ""
        }
      ]
    },
    {
      "name": "get_finished_event",
      "protocolProfileBehavior": {
        "disableBodyPruning": true
      },
      "request": {
        "method": "GET",
        "header": [
          {
            "key": "Authorization",
            "value": "eyJ0eXAiOiJKV1QiLCJhbGciOiJIUzI1NiJ9.eyJlbWFpbCI6ImNoYXlrYTE5OThBQHlhbmRleC5ydSIsInBhc3N3b3JkIjoiMTE5OTExOTkifQ._EnaVtiDMGoriGzWSRJhbjd4_jBfTm04RyTAWVJpuVs",
            "type": "text"
          },
          {
            "key": "",
            "value": "",
            "type": "text",
            "disabled": true
          }
        ],
        "body": {
          "mode": "raw",
          "raw": "{\n    \"id\": 8\n}",
          "options": {
            "raw": {
              "language": "json"
            }
          }
        },
        "url": {
          "raw": "http://127.0.0.1:8000/api/get_finished_event/",
          "protocol": "http",
          "host": [
            "127",
            "0",
            "0",
            "1"
          ],
          "port": "8000",
          "path": [
            "api",
            "get_finished_event",
            ""
          ]
        }
      },
      "response": [
        {
          "event": {
            "name": "2020 Land Rover Defender 110",
            "description": "Enter now for your chance to win this awesome 2020 Land Rover Defender!\r\n\r\nThis is the latest generation Defender 110, which we purchased directly form Land Rover, equipped with thousands of pounds worth of optional extras, and a few subtle aesthetic enhancements too!!  Luxurious yet still rugged with fantastic off-road ability this is not a competition you want to miss out on!!\r\n\r\nSpec: \r\n\r\n2020 (20) Land Rover Defender 110 S D200 2.0 Diesel\r\n8 Speed Automatic\r\n8.900 Miles – Land Rover Warranty ’til 2023\r\nSantorini Black Metallic With Ultimate Black Roof\r\nBlack Grained Leather/Textile Heated Seats\r\nApple Car Play with 10″ Pro Touch Screen\r\n360 Camera With 3D View\r\nPanoramic Glass Sunroof\r\nDriver Assist Pack\r\nBody Coloured Arch/Bumper Trims\r\n23″ Kahn Alloy Wheels\r\nPrivacy Glass\r\nSide-Steps\r\nDetachable Tow-Bar\r\n£1000 Included towards running costs!!\r\n\r\nWhat an awesome looking Defender, we are sure this one is going to fly out, so avoid disappointment and get those entries in before its too late!!\r\n\r\nGood Luck",
            "competition_info": {
              "name": "Машины",
              "description": "Competition Details\r\nPlease make sure you answer the question correctly!\r\n\r\nThis competition has a maximum number of 17235 entries.\r\n\r\nFor total transparency, we video all draws LIVE on our Facebook page using Google’s random number generator.\r\n\r\nThe draw date for this competition is 01/03/2021 6:00 pm unless all tickets are sold beforehand, when it can be held earlier. We have never delayed a draw and never will.\r\n\r\nYour ticket numbers are selected at random and appear in your account as soon as you have entered. We also email your numbers to you. \r\n\r\nBy entering, you confirm that you have read and agreed to our terms and conditions. For a postal entry route please also see our terms and conditions.\r\n\r\nEntering the competition and successfully answering the question does not guarantee a prize, only entry into the LIVE draw.\r\n\r\nTo get news about new competitions, winners and more, please register here or Like our Facebook page."
            },
            "sold": true,
            "finished": true,
            "images": [
              "/api/media/media/22.jpg",
              "/api/media/media/21.jpg",
              "/api/media/media/23.jpg"
            ],
            "bhp": "12",
            "speed": "123",
            "mpg": "12",
            "miles": "12000",
            "year": "2020"
          },
          "error": ""
        }
      ]
    },
    {
      "name": "related_competitions",
      "protocolProfileBehavior": {
        "disableBodyPruning": true
      },
      "request": {
        "method": "GET",
        "header": [
          {
            "key": "Authorization",
            "value": "eyJ0eXAiOiJKV1QiLCJhbGciOiJIUzI1NiJ9.eyJlbWFpbCI6ImNoYXlrYTE5OThBQHlhbmRleC5ydSIsInBhc3N3b3JkIjoiMTE5OTExOTkifQ._EnaVtiDMGoriGzWSRJhbjd4_jBfTm04RyTAWVJpuVs",
            "type": "text"
          },
          {
            "key": "",
            "value": "",
            "type": "text",
            "disabled": true
          }
        ],
        "body": {
          "mode": "raw",
          "raw": "{\n    \"id\": 4\n}",
          "options": {
            "raw": {
              "language": "json"
            }
          }
        },
        "url": {
          "raw": "http://127.0.0.1:8000/api/related_competitions/",
          "protocol": "http",
          "host": [
            "127",
            "0",
            "0",
            "1"
          ],
          "port": "8000",
          "path": [
            "api",
            "related_competitions",
            ""
          ]
        }
      },
      "response": [
        {
          "events": [
            {
              "id": 11,
              "name": "Ferrari 458 Spider & £10,000 OR £110,000 Tax Free Cash!!",
              "price": 110.0,
              "name_price": "LAUNCH PRICE!",
              "now_price": 96.8,
              "limit_person": 3,
              "left": 47,
              "tickets": 50,
              "percent_of_sold": 0,
              "photo": "/api/media/media/11.jpg",
              "create_at": {
                "date": "February 28, 2021",
                "time": "03:06 PM"
              },
              "finished_at": {
                "data": "March 27, 2021",
                "time": "07:01 PM"
              },
              "sold": false,
              "finished": false
            },
            {
              "id": 12,
              "name": "2020 Land Rover Defender 110",
              "price": 130.0,
              "name_price": "LAUNCH PRICE!",
              "now_price": 117.0,
              "limit_person": 1,
              "left": 50,
              "tickets": 50,
              "percent_of_sold": 0,
              "photo": "/api/media/media/22.jpg",
              "create_at": {
                "date": "February 28, 2021",
                "time": "05:47 PM"
              },
              "finished_at": {
                "data": "March 28, 2021",
                "time": "12:00 PM"
              },
              "sold": true,
              "finished": true
            }
          ],
          "error": ""
        }
      ]
    },
    {
      "name": "get_regions",
      "protocolProfileBehavior": {
        "disableBodyPruning": true
      },
      "request": {
        "method": "GET",
        "header": [
          {
            "key": "Authorization",
            "value": "eyJ0eXAiOiJKV1QiLCJhbGciOiJIUzI1NiJ9.eyJlbWFpbCI6ImNoYXlrYTE5OThBQHlhbmRleC5ydSIsInBhc3N3b3JkIjoiMTE5OTExOTkifQ._EnaVtiDMGoriGzWSRJhbjd4_jBfTm04RyTAWVJpuVs",
            "type": "text"
          },
          {
            "key": "",
            "value": "",
            "type": "text",
            "disabled": true
          }
        ],
        "body": {
          "mode": "raw",
          "raw": "{\n    \"id\": 4\n}",
          "options": {
            "raw": {
              "language": "json"
            }
          }
        },
        "url": {
          "raw": "http://127.0.0.1:8000/api/get_regions/",
          "protocol": "http",
          "host": [
            "127",
            "0",
            "0",
            "1"
          ],
          "port": "8000",
          "path": [
            "api",
            "get_regions",
            ""
          ]
        }
      },
      "response": {
        "regions": [
          {
            "country_id": 1,
            "country": "Россия",
            "regions": [
              {
                "region_id": 1,
                "city": "Ростов"
              },
              {
                "region_id": 2,
                "city": "Москва"
              },
              {
                "region_id": 3,
                "city": "Питер"
              }
            ]
          }
        ],
        "error": ""
      }
    },
    {
      "name": "get_broadcasts",
      "protocolProfileBehavior": {
        "disableBodyPruning": true
      },
      "request": {
        "method": "GET",
        "header": [
          {
            "key": "Authorization",
            "value": "eyJ0eXAiOiJKV1QiLCJhbGciOiJIUzI1NiJ9.eyJlbWFpbCI6ImNoYXlrYTE5OThBQHlhbmRleC5ydSIsInBhc3N3b3JkIjoicGJrZGYyX3NoYTI1NiQyMTYwMDAkRGhUU1ViUEQwMWgzJGVRNkc0VHN6UEVZVFBOWDBlQkplM09ZZGlWS01qalZPa05zZkNGV0ExWDA9In0.mi3MdlcE6YFGiWcznO-1l4eiOlwRhrwfuEHa33CWX7w",
            "type": "text"
          },
          {
            "key": "",
            "value": "",
            "type": "text",
            "disabled": true
          }
        ],
        "body": {
          "mode": "raw",
          "raw": "",
          "options": {
            "raw": {
              "language": "json"
            }
          }
        },
        "url": {
          "raw": "http://127.0.0.1:8000/api/get_broadcasts/",
          "protocol": "http",
          "host": [
            "127",
            "0",
            "0",
            "1"
          ],
          "port": "8000",
          "path": [
            "api",
            "get_broadcasts",
            ""
          ]
        }
      },
      "response": [
        {
          "broadcasts": [
            {
              "link": "https://www.youtube.com/watch?v=WGYYI1zhp2Y",
              "event": "2020 Land Rover Defender 110",
              "event_id": 12,
              "live": true
            }
          ],
          "error": ""
        }
      ]
    },
    {
      "name": "get_tickets",
      "protocolProfileBehavior": {
        "disableBodyPruning": true
      },
      "request": {
        "method": "GET",
        "header": [
          {
            "key": "Authorization",
            "value": "eyJ0eXAiOiJKV1QiLCJhbGciOiJIUzI1NiJ9.eyJlbWFpbCI6ImNoYXlrYTE5OThBQHlhbmRleC5ydSIsInBhc3N3b3JkIjoiMTE5OSJ9.4oK3SR_XqtEamauYs02LBijjOPz3CEBHELg0a8jl7DQ",
            "type": "text"
          },
          {
            "key": "",
            "value": "",
            "type": "text",
            "disabled": true
          }
        ],
        "body": {
          "mode": "raw",
          "raw": "{\n    \"id_event\": 11\n}",
          "options": {
            "raw": {
              "language": "json"
            }
          }
        },
        "url": {
          "raw": "http://127.0.0.1:8000/api/get_tickets/",
          "protocol": "http",
          "host": [
            "127",
            "0",
            "0",
            "1"
          ],
          "port": "8000",
          "path": [
            "api",
            "get_tickets",
            ""
          ]
        }
      },
      "response": [
        {
          "tickets": [
            {
              "id": 1,
              "number": 1,
              "busy": true
            },
            {
              "id": 2,
              "number": 2,
              "busy": true
            }
          ]
        }
      ]
    },
    {
      "name": "buy_tickets",
      "protocolProfileBehavior": {
        "disableBodyPruning": true
      },
      "request": {
        "method": "GET",
        "header": [
          {
            "key": "Authorization",
            "value": "eyJ0eXAiOiJKV1QiLCJhbGciOiJIUzI1NiJ9.eyJlbWFpbCI6ImNoYXlrYTE5OThBQHlhbmRleC5ydSIsInBhc3N3b3JkIjoiMTE5OSJ9.4oK3SR_XqtEamauYs02LBijjOPz3CEBHELg0a8jl7DQ",
            "type": "text"
          },
          {
            "key": "",
            "value": "",
            "type": "text",
            "disabled": true
          }
        ],
        "body": {
          "mode": "raw",
          "raw": "{\n    \"id_event\": 11,\n    \"tickets\": [{\"id_ticket\": 1}, {\"id_ticket\": 2}, {\"id_ticket\": 3}],\n    \"amount\": 10\n}",
          "options": {
            "raw": {
              "language": "json"
            }
          }
        },
        "url": {
          "raw": "http://127.0.0.1:8000/api/buy_tickets/",
          "protocol": "http",
          "host": [
            "127",
            "0",
            "0",
            "1"
          ],
          "port": "8000",
          "path": [
            "api",
            "buy_tickets",
            ""
          ]
        }
      },
      "response": [
        {
          "status": true,
          "tickets": [
            {
              "id": 1,
              "number": 1,
              "busy": false
            },
            {
              "id": 2,
              "number": 2,
              "busy": false
            },
            {
              "id": 3,
              "number": 3,
              "busy": false
            }
          ],
          "url": "https://sandboxcheckout.rapyd.net?token=checkout_dc885c3f52a5ef2e745e177d75a4bf66",
          "error": ""
        }
      ]
    },
    {
      "name": "get_finished_events",
      "protocolProfileBehavior": {
        "disableBodyPruning": true
      },
      "request": {
        "method": "GET",
        "header": [
          {
            "key": "Authorization",
            "value": "eyJ0eXAiOiJKV1QiLCJhbGciOiJIUzI1NiJ9.eyJlbWFpbCI6ImNoYXlrYTE5OThBQHlhbmRleC5ydSIsInBhc3N3b3JkIjoiMTE5OSJ9.4oK3SR_XqtEamauYs02LBijjOPz3CEBHELg0a8jl7DQ",
            "type": "text"
          },
          {
            "key": "",
            "value": "",
            "type": "text",
            "disabled": true
          }
        ],
        "body": {
          "mode": "raw",
          "raw": "{\n    \"id_event\": 11,\n    \"tickets\": [{\"id_ticket\": 1}, {\"id_ticket\": 2}, {\"id_ticket\": 3}],\n    \"amount\": 10\n}",
          "options": {
            "raw": {
              "language": "json"
            }
          }
        },
        "url": {
          "raw": "https://sandboxapi.rapyd.net/v1/data/countries?access_key",
          "protocol": "https",
          "host": [
            "sandboxapi",
            "rapyd",
            "net"
          ],
          "path": [
            "v1",
            "data",
            "countries"
          ],
          "query": [
            {
              "key": "access_key",
              "value": null
            }
          ]
        }
      },
      "response": [
        {
          "events": [
            {
              "name": "2020 Land Rover Defender 110",
              "description": "Enter now for your chance to win this awesome 2020 Land Rover Defender!\r\n\r\nThis is the latest generation Defender 110, which we purchased directly form Land Rover, equipped with thousands of pounds worth of optional extras, and a few subtle aesthetic enhancements too!!  Luxurious yet still rugged with fantastic off-road ability this is not a competition you want to miss out on!!\r\n\r\nSpec: \r\n\r\n2020 (20) Land Rover Defender 110 S D200 2.0 Diesel\r\n8 Speed Automatic\r\n8.900 Miles – Land Rover Warranty ’til 2023\r\nSantorini Black Metallic With Ultimate Black Roof\r\nBlack Grained Leather/Textile Heated Seats\r\nApple Car Play with 10″ Pro Touch Screen\r\n360 Camera With 3D View\r\nPanoramic Glass Sunroof\r\nDriver Assist Pack\r\nBody Coloured Arch/Bumper Trims\r\n23″ Kahn Alloy Wheels\r\nPrivacy Glass\r\nSide-Steps\r\nDetachable Tow-Bar\r\n£1000 Included towards running costs!!\r\n\r\nWhat an awesome looking Defender, we are sure this one is going to fly out, so avoid disappointment and get those entries in before its too late!!\r\n\r\nGood Luck",
              "competition_info": {
                "name": "Машины",
                "description": "Competition Details\r\nPlease make sure you answer the question correctly!\r\n\r\nThis competition has a maximum number of 17235 entries.\r\n\r\nFor total transparency, we video all draws LIVE on our Facebook page using Google’s random number generator.\r\n\r\nThe draw date for this competition is 01/03/2021 6:00 pm unless all tickets are sold beforehand, when it can be held earlier. We have never delayed a draw and never will.\r\n\r\nYour ticket numbers are selected at random and appear in your account as soon as you have entered. We also email your numbers to you. \r\n\r\nBy entering, you confirm that you have read and agreed to our terms and conditions. For a postal entry route please also see our terms and conditions.\r\n\r\nEntering the competition and successfully answering the question does not guarantee a prize, only entry into the LIVE draw.\r\n\r\nTo get news about new competitions, winners and more, please register here or Like our Facebook page."
              },
              "sold": true,
              "finished": true,
              "images": [
                "/api/media/media/22.jpg",
                "/api/media/media/21.jpg",
                "/api/media/media/23.jpg"
              ],
              "bhp": "12",
              "speed": "123",
              "mpg": "12",
              "miles": "12000",
              "year": "2020"
            }
          ],
          "error": ""
        }
      ]
    }
  ]
}